…
    ## using cached file: ~/Library/Caches/R/noaa_ghcnd/USS0023B17S.dly

    ## date created (size, mb): 2021-10-15 18:13:05 (0.912)

    ## file min/max dates: 1999-09-01 / 2021-10-31

Nest data within location

``` r
weather_nested = nest(weather_df, data = date:tmin)

unnest(weather_nested, data)
```

    ## # A tibble: 1,095 × 6
    ##    name           id          date        prcp  tmax  tmin
    ##    <chr>          <chr>       <date>     <dbl> <dbl> <dbl>
    ##  1 CentralPark_NY USW00094728 2017-01-01     0   8.9   4.4
    ##  2 CentralPark_NY USW00094728 2017-01-02    53   5     2.8
    ##  3 CentralPark_NY USW00094728 2017-01-03   147   6.1   3.9
    ##  4 CentralPark_NY USW00094728 2017-01-04     0  11.1   1.1
    ##  5 CentralPark_NY USW00094728 2017-01-05     0   1.1  -2.7
    ##  6 CentralPark_NY USW00094728 2017-01-06    13   0.6  -3.8
    ##  7 CentralPark_NY USW00094728 2017-01-07    81  -3.2  -6.6
    ##  8 CentralPark_NY USW00094728 2017-01-08     0  -3.8  -8.8
    ##  9 CentralPark_NY USW00094728 2017-01-09     0  -4.9  -9.9
    ## 10 CentralPark_NY USW00094728 2017-01-10     0   7.8  -6  
    ## # … with 1,085 more rows
…
napoleon_df %>%
  mutate(reviews = map(urls, get_page_reviews)) %>%
  select(reviews) %>%
  unnest()
```

    ## Warning: `cols` is now required when using unnest().
    ## Please use `cols = c(reviews)`

    ## # A tibble: 50 × 3
    ##    title                            stars              text                     
    ##    <chr>                            <chr>              <chr>                    
    ##  1 no brainer                       5.0 out of 5 stars "\n  watched this with m…
    ##  2 Yeah., it was pretty good.       5.0 out of 5 stars "\n  Yeah, it was pretty…
    ##  3 Love it                          5.0 out of 5 stars "\n  Didn't like this wh…
    ##  4 it was                           5.0 out of 5 stars "\n  mad good yo\n"      
    ##  5 Fun!                             4.0 out of 5 stars "\n  Fun and entertainin…
    ##  6 Vintage                          5.0 out of 5 stars "\n  Easy to order. I th…
    ##  7 too many commercials             1.0 out of 5 stars "\n  5 minutes into the …
    ##  8 this film is so good!            5.0 out of 5 stars "\n  VOTE FOR PEDRO!\n"  
    ##  9 Good movie                       5.0 out of 5 stars "\n  Weird story, goofy …
    ## 10 I Just everyone to know this.... 5.0 out of 5 stars "\n  VOTE FOR PEDRO !!!!…
    ## # … with 40 more rows
…
